{
	"id": "e0ba37ac-bb8f-468d-909d-45c15e57b903",
	"name": "Production",
	"values": [
		{
			"key": "baseUrl",
			"value": "http://CarsApi-env.eba-bufstqhj.us-east-1.elasticbeanstalk.com",
			"enabled": true
		}
	],
	"_postman_variable_scope": "environment",
	"_postman_exported_at": "2020-08-15T04:32:04.802Z",
	"_postman_exported_using": "Postman/7.29.1"
}